[
    {
        "host" : "https://google.com",    
        "close": true,
        "config": {
            "headless": false,
            "devtools": false,
            "defaultViewport": null,
            "slowMo": 90,
            "waitUntil": "networkidle0",
            "args":[
                "--start-maximized"
            ]
        },
        "scenes": [
            {
                "name": "searching..",
                "scene": "./scene/v1/google_com/20201127_searching.js",
                "configuration": {
                    "search": "Hello I am using turtleio/puppet-engine"
                }
            }
        ]
    }
]
